{
  "rules": {
    "quotemark": [true, "single"],
    "no-var-keyword": true,
    "no-var-requires": true,
    "indent": [true, "spaces"],
    "curly": true,
    "no-any": false,
    "no-require-imports": true,
    "no-unused-variable": true,
    "semicolon": true,
    "triple-equals": true,
    "use-strict": true,
    "no-shadowed-variable": true,
    "no-switch-case-fall-through": true,
    "no-unreachable": true,
    "no-unused-expression": true,
    "no-trailing-whitespace": true,
    "no-require-imports": false,
    "switch-default": true
  }
}
